Final Project
…
test_data %>% 
  filter(engine_transmission_battery_value == "No")

## # A tibble: 3,438 x 71
##    appointment_num inspection_start_time registration_date engine_transmission_~
##              <int> <dttm>                <date>            <fct>                
##  1               1 2019-02-03 15:43:48   2008-08-01        No                   
##  2               8 2019-04-08 12:47:09   2016-02-01        No                   
##  3              11 2019-01-02 15:48:54   2011-06-01        No                   
##  4              22 2019-03-10 14:03:09   2013-04-01        No                   
##  5              33 2019-01-13 11:32:32   2011-09-01        No                   
##  6              43 2019-04-09 14:30:42   2005-05-01        No                   
##  7              46 2019-01-04 10:17:33   2011-04-01        No                   
##  8              73 2019-03-24 12:07:40   2012-08-01        No                   
##  9              82 2019-01-08 13:52:55   2010-01-01        No                   
## 10              89 2019-04-04 15:27:52   2005-03-01        No                   
## # ... with 3,428 more rows, and 67 more variables:
## #   engine_transmission_battery_cc_value_0 <fct>,
## #   engine_transmission_battery_cc_value_1 <fct>,
## #   engine_transmission_battery_cc_value_2 <fct>,
## #   engine_transmission_battery_cc_value_3 <fct>,
## #   engine_transmission_engineoil_level_dipstick_value <chr>,
## #   engine_transmission_engine_oil_level_dipstick_cc_value_0 <chr>, ...
…
